# Blender v2.74 (sub 0) OBJ File: ''
# www.blender.org
mtllib boxes.mtl
o Box
v 0.507100 0.908750 0.620100 4.0
v 0.507100 0.908750 -0.490300 4.0
v 0.507100 -0.627350 0.620100 4.0
v 0.507100 -0.627350 -0.490300 4.0
v -0.492900 0.908750 -0.490300 4.0
v -0.492900 0.908750 0.620100 4.0
v -0.492900 -0.627350 -0.490300 4.0
v -0.492900 -0.627350 0.620100 4.0
vt 0.000000 1.000000
vt 0.000000 0.000000
vt 1.000000 0.000000
vt 1.000000 1.000000
vn 1.000000 0.000000 0.000000
vn -1.000000 0.000000 0.000000
vn 0.000000 1.000000 0.000000
vn 0.000000 -1.000000 0.000000
vn 0.000000 0.000000 1.000000
vn 0.000000 0.000000 -1.000000
usemtl 323030
s 1
c 1.0 0.0 1.0 1.0
c 0.0 0.0 1.0 1.0
c 0.0 1.0 1.0 1.0
c 0.0 0.0 1.0 1.0
c 1.0 0.0 1.0 1.0
c 0.0 0.0 1.0 1.0
c 0.0 0.0 1.0 1.0
c 0.0 0.0 1.0 1.0
f 1/1 3/2 4/3 2/4
f 5/1 7/2 8/3 6/4
f 5/1 6/2 1/3 2/4
f 8/1 7/2 4/3 3/4
f 6/1 8/2 3/3 1/4
f 2/1 4/2 7/3 5/4
